lab_cat,lab_units,N,i.lab_units
3_abs,#/mm3,2408,/ul
3_pct,%lymphs,2978,%
acligm,mpl units,5134,mpl
aeos,,193333,k/ul
aeos,th/cmm,71388,k/ul
aldol,iu/l,211,u/l
alkp,iu/l,424,u/l
amy,units/l,24260,u/l
anc_blood,th/cmm,95566,k/ul
anc_blood,th/mm3,2382,k/ul
anion,,400,meq/l
apco2,mm/hg,8699,mmhg
apo2,mm/hg,8698,mmhg
band,th/cmm,4437,th/mm3
baso,th/cmm,71118,k/ul
baso,th/mm3,24115,k/ul
bhcg,miu/ml,3230,iu/ml
bpco2,mm/hg,12033,mmhg
bph,,304708,units
bpo2,mm/hg,12036,mmhg
carba,mcg/ml,1024,ug/ml
cate,u/ml,538,cae uni
cd1656,% lymphs,482,%
cd19,%lymphs,407,%
cd3_cd8,%lymphs,108,%
cd3p_cd4p,%lymphs,984,%
cd4,,5658,/ul
cd4,#/mm3,2497,/ul
cd45,% lymphs,345,%
cd8ab,#/mm3,2392,/ul
cl,meq/l,1188,mmol/l
co2,,17006,mmol/l
co2,meq/l,1528,mmol/l
co2,mm/l,266915,mmol/l
cyclowb,ng/ml,1171,ug/l
ddimer,,671,mcg/ml
dhea,mcg/dl,197,ug/dl
falb,gm/dl,1481,g/dl
fe,mcg/dl,8478,ug/dl
fsh_ch,miu/ml,9521,u/l
fsh_ch,mu/ml,4432,u/l
gfr,ml/min/1.73m2,208738,ml/min/1.73 sq meter
glu_other,mg%,13502,mg/dl
hc_3,meq/l,136,mmol/l
hcg,miu/ml,45261,iu/l
hct,,4554,%
hgb,,4517,g/dl
hgb,gm/dl,169262,g/dl
hgb,mg%,222,g/dl
ins,uiu/ml,1052,uu/ml
k,meq/l,1293,mmol/l
lh_chm,miu/ml,124,u/l
lh_chm,mu/ml,7209,u/l
lymph,,214301,k/ul
lymph,#/mm3,1631,/ul
lymph,/mm3,777,/ul
lymph,th/cmm,94973,k/ul
lymph,th/mm3,2380,k/ul
malbcre,mg/g cre,1775,mg alb/g cre
mch,,4517,pg/rbc
mch,pg,99409,pg/rbc
mch,uug,1762110,pg/rbc
mchc,,4517,g/dl
mchc,gm %,2288,g/dl
mchc,gm%,1017,g/dl
mcv,,4517,fl
mcv,um3,1764467,fl
met_tu,mcg/24 hr,115,mcg/24 h
met_tu,ug/24 hr,552,mcg/24 h
mg,mg/dl,1104680,meq/l
monos,,214283,k/ul
monos,th/cmm,33401,k/ul
monos,th/mm3,63840,k/ul
nh3,mcmol/l,1817,umol/l
osm,mosm,1005,mosm/kg
osm,mosm/kg water,2418,mosm/kg
perc_baso,5,398,%
perc_eos,,325341,%
perc_lymph,,343537,%
phen,mcg/ml,2944,mg/l
phen,mg/l,206,ug/ml
phen,ug/ml,17893,mg/l
plt,,2514,k/ul
plt,/mm3,3302,k/ul
plt,th/cumm,192095,k/ul
rbc,,4517,/mm3
rbc,m/ul,1860611,/mm3
rbc,mil/cmm,169283,/mm3
rbc,mil/cum,18714,/mm3
rbc,mil/cumm,1394,/mm3
rdw,,586768,%
renin,ng/ml/h,337,ng/ml/hr
sodium,meq/l,1298,mmol/l
t_uca,mg/tota,332,mg/total output
t_uepi,ug/24hr,571,mcg/24hr
t_uepi,ug/tv,138,mcg/24hr
t_unore,ug/24hr,597,mcg/24hr
t_unore,ug/tv,138,mcg/24hr
tibc,mcg/dl,8257,ug/dl
trgent,mcg/ml,1000,ug/ml
tsh,uiu/ml,13912,miu/l
u_f,mcg/24h,178,mcg/24hr
uas_amor,,59774,/hpf
ufentnyl,,209,ng/ml
uosm,mosm/kg water,1344,mosm/kg
uoxcod,,8065,ng/ml
uun,mg%,370,mg/dl
valp,mcg/ml,2461,ug/ml
vanc,mcg/ml,3546,ug/ml
vanc,mg/l,42691,ug/ml
vpo2,mm/hg,2238,mmhg
wbc_blood,,4552,k/ul
wbc_blood,th/cmm,172192,k/ul
wbc_blood,th/cumm,20436,k/ul
